Analisis de Letras/simulation/qsim/QuesoConexion.msim.vcd
$comment
	File created using the following command:
		vcd file QuesoConexion.msim.vcd -direction
$end
$date
	Thu Nov 17 00:09:12 2016
$end
$version
	ModelSim Version 10.4d
$end
$timescale
	1ps
$end

$scope module QuesoConexion_vlg_vec_tst $end
$var reg 1 ! CLK $end
$var reg 1 " EnviarDatos $end
$var reg 1 # FinPalabra $end
$var reg 1 $ HayLetra $end
$var reg 1 % Inicio $end
$var reg 5 & Letra [0:4] $end
$var reg 1 ' RESET $end
$var reg 2 ( Selector [0:1] $end
$var wire 1 ) ComunicacionPC $end
$var wire 1 * EstadosControl [1] $end
$var wire 1 + EstadosControl [2] $end
$var wire 1 , EstadosControl [3] $end
$var wire 1 - EstadosControl [4] $end
$var wire 1 . EstadosControl [5] $end
$var wire 1 / EstadosControl [6] $end
$var wire 1 0 EstadosControl [7] $end
$var wire 1 1 EstadosControl [8] $end
$var wire 1 2 EstadosControl [9] $end
$var wire 1 3 EstadosControl [10] $end
$var wire 1 4 EstadosControl [11] $end
$var wire 1 5 EstadosControl [12] $end
$var wire 1 6 EstadosControl [13] $end
$var wire 1 7 Led0 $end
$var wire 1 8 Led1 $end
$var wire 1 9 Led2 $end
$var wire 1 : Led3 $end

$scope module i1 $end
$var wire 1 ; gnd $end
$var wire 1 < vcc $end
$var wire 1 = unknown $end
$var tri1 1 > devclrn $end
$var tri1 1 ? devpor $end
$var tri1 1 @ devoe $end
$var wire 1 A ~QUARTUS_CREATED_GND~I_combout $end
$var wire 1 B ~QUARTUS_CREATED_UNVM~~busy $end
$var wire 1 C ~QUARTUS_CREATED_ADC1~~eoc $end
$var wire 1 D Led0~output_o $end
$var wire 1 E Led1~output_o $end
$var wire 1 F Led2~output_o $end
$var wire 1 G Led3~output_o $end
$var wire 1 H EstadosControl[13]~output_o $end
$var wire 1 I EstadosControl[12]~output_o $end
$var wire 1 J EstadosControl[11]~output_o $end
$var wire 1 K EstadosControl[10]~output_o $end
$var wire 1 L EstadosControl[9]~output_o $end
$var wire 1 M EstadosControl[8]~output_o $end
$var wire 1 N EstadosControl[7]~output_o $end
$var wire 1 O EstadosControl[6]~output_o $end
$var wire 1 P EstadosControl[5]~output_o $end
$var wire 1 Q EstadosControl[4]~output_o $end
$var wire 1 R EstadosControl[3]~output_o $end
$var wire 1 S EstadosControl[2]~output_o $end
$var wire 1 T EstadosControl[1]~output_o $end
$var wire 1 U ComunicacionPC~output_o $end
$var wire 1 V CLK~input_o $end
$var wire 1 W CLK~inputclkctrl_outclk $end
$var wire 1 X ContadorBit|dato2~0_combout $end
$var wire 1 Y RESET~input_o $end
$var wire 1 Z RESET~inputclkctrl_outclk $end
$var wire 1 [ ContadorRegistro|dato1~0_combout $end
$var wire 1 \ FinPalabra~input_o $end
$var wire 1 ] Inicio~input_o $end
$var wire 1 ^ HayLetra~input_o $end
$var wire 1 _ Controll|comb~17_combout $end
$var wire 1 ` Controll|F3~q $end
$var wire 1 a ContadorBit|dato1~0_combout $end
$var wire 1 b Controll|IncrementarRegistro~0_combout $end
$var wire 1 c ContadorBit|dato1~q $end
$var wire 1 d ContadorLetras|dato4~0_combout $end
$var wire 1 e comb~1_combout $end
$var wire 1 f ContadorLetras|dato1~0_combout $end
$var wire 1 g ContadorSelector|dato4~0_combout $end
$var wire 1 h EnviarDatos~input_o $end
$var wire 1 i Controll|comb~23_combout $end
$var wire 1 j Controll|F10~q $end
$var wire 1 k comb~0_combout $end
$var wire 1 l ContadorSelector|dato3~0_combout $end
$var wire 1 m ContadorSelector|dato2~0_combout $end
$var wire 1 n ContadorTiempos|dato5~0_combout $end
$var wire 1 o Controll|comb~5_combout $end
$var wire 1 p Controll|F12~q $end
$var wire 1 q Controll|comb~4_combout $end
$var wire 1 r Controll|F13~q $end
$var wire 1 s Controll|comb~6_combout $end
$var wire 1 t Controll|F11~q $end
$var wire 1 u comb~2_combout $end
$var wire 1 v ContadorTiempos|dato4~0_combout $end
$var wire 1 w ContadorTiempos|dato2~0_combout $end
$var wire 1 x ContadorTiempos|dato1~0_combout $end
$var wire 1 y Controll|InicioContadorTiempo~0_combout $end
$var wire 1 z ContadorTiempos|dato1~q $end
$var wire 1 { ContadorTiempos|comb~3_combout $end
$var wire 1 | ContadorTiempos|dato2~q $end
$var wire 1 } ContadorTiempos|dato3~0_combout $end
$var wire 1 ~ ContadorTiempos|comb~0_combout $end
$var wire 1 !! ContadorTiempos|dato3~q $end
$var wire 1 "! ContadorTiempos|comb~2_combout $end
$var wire 1 #! ContadorTiempos|dato4~q $end
$var wire 1 $! ContadorTiempos|comb~1_combout $end
$var wire 1 %! ContadorTiempos|dato5~q $end
$var wire 1 &! ContadorSelector|dato1~0_combout $end
$var wire 1 '! Controll|comb~22_combout $end
$var wire 1 (! ContadorSelector|dato1~q $end
$var wire 1 )! ContadorSelector|comb~2_combout $end
$var wire 1 *! ContadorSelector|dato2~q $end
$var wire 1 +! ContadorSelector|comb~0_combout $end
$var wire 1 ,! ContadorSelector|dato3~q $end
$var wire 1 -! ContadorSelector|comb~1_combout $end
$var wire 1 .! ContadorSelector|dato4~q $end
$var wire 1 /! Controll|comb~7_combout $end
$var wire 1 0! ContadorLetras|dato1~q $end
$var wire 1 1! ContadorLetras|dato2~0_combout $end
$var wire 1 2! ContadorLetras|comb~3_combout $end
$var wire 1 3! ContadorLetras|dato2~q $end
$var wire 1 4! ContadorLetras|dato3~0_combout $end
$var wire 1 5! ContadorLetras|comb~2_combout $end
$var wire 1 6! ContadorLetras|comb~4_combout $end
$var wire 1 7! ContadorLetras|dato3~q $end
$var wire 1 8! ContadorLetras|comb~5_combout $end
$var wire 1 9! ContadorLetras|dato4~q $end
$var wire 1 :! Controll|comb~8_combout $end
$var wire 1 ;! Controll|comb~9_combout $end
$var wire 1 <! Controll|comb~10_combout $end
$var wire 1 =! Controll|F9~q $end
$var wire 1 >! Controll|comb~21_combout $end
$var wire 1 ?! Controll|F1~q $end
$var wire 1 @! ContadorRegistro|dato3~0_combout $end
$var wire 1 A! ContadorRegistro|dato2~0_combout $end
$var wire 1 B! Controll|comb~14_combout $end
$var wire 1 C! Controll|F6~q $end
$var wire 1 D! Controll|comb~15_combout $end
$var wire 1 E! Controll|F5~q $end
$var wire 1 F! Controll|comb~16_combout $end
$var wire 1 G! Controll|F4~q $end
$var wire 1 H! ContadorRegistro|comb~1_combout $end
$var wire 1 I! ContadorRegistro|dato2~q $end
$var wire 1 J! Controll|comb~11_combout $end
$var wire 1 K! ContadorRegistro|comb~0_combout $end
$var wire 1 L! ContadorRegistro|dato3~q $end
$var wire 1 M! Controll|comb~18_combout $end
$var wire 1 N! Controll|comb~19_combout $end
$var wire 1 O! Controll|comb~20_combout $end
$var wire 1 P! Controll|F2~q $end
$var wire 1 Q! Controll|comb~13_combout $end
$var wire 1 R! Controll|F7~q $end
$var wire 1 S! comb~3_combout $end
$var wire 1 T! ContadorRegistro|dato1~q $end
$var wire 1 U! Controll|comb~12_combout $end
$var wire 1 V! Controll|F8~q $end
$var wire 1 W! ContadorBit|comb~0_combout $end
$var wire 1 X! ContadorBit|dato2~q $end
$var wire 1 Y! Controll|comb~2_combout $end
$var wire 1 Z! Controll|comb~3_combout $end
$var wire 1 [! Letra[0]~input_o $end
$var wire 1 \! Registro1|Reg1|dato0~q $end
$var wire 1 ]! Registro1|Reg2|dato0~feeder_combout $end
$var wire 1 ^! Registro1|Reg2|dato0~q $end
$var wire 1 _! Registro3|Reg1|dato0~q $end
$var wire 1 `! Registro3|Reg2|dato0~q $end
$var wire 1 a! Selector[1]~input_o $end
$var wire 1 b! SelectorLetra|Mux1|Out_Mux~16_combout $end
$var wire 1 c! SelectorLetra|Mux1|Out_Mux~17_combout $end
$var wire 1 d! Selector[0]~input_o $end
$var wire 1 e! Registro3|Reg3|dato0~q $end
$var wire 1 f! Registro3|Reg4|dato0~feeder_combout $end
$var wire 1 g! Registro3|Reg4|dato0~q $end
$var wire 1 h! Registro3|Reg5|dato0~q $end
$var wire 1 i! Registro3|Reg6|dato0~q $end
$var wire 1 j! SelectorLetra|Mux1|Out_Mux~13_combout $end
$var wire 1 k! Registro1|Reg3|dato0~q $end
$var wire 1 l! Registro1|Reg4|dato0~feeder_combout $end
$var wire 1 m! Registro1|Reg4|dato0~q $end
$var wire 1 n! Registro1|Reg5|dato0~q $end
$var wire 1 o! Registro1|Reg6|dato0~feeder_combout $end
$var wire 1 p! Registro1|Reg6|dato0~q $end
$var wire 1 q! SelectorLetra|Mux1|Out_Mux~14_combout $end
$var wire 1 r! SelectorLetra|Mux1|Out_Mux~15_combout $end
$var wire 1 s! SelectorLetra|Mux3|Out_Mux~0_combout $end
$var wire 1 t! SelectorLetra|Mux1|Out_Mux~18_combout $end
$var wire 1 u! Registro3|Reg7|dato0~feeder_combout $end
$var wire 1 v! Registro3|Reg7|dato0~q $end
$var wire 1 w! SelectorLetra|Mux1|Out_Mux~3_combout $end
$var wire 1 x! SelectorLetra|Mux1|Out_Mux~19_combout $end
$var wire 1 y! SelectorLetra|Mux1|Out_Mux~6_combout $end
$var wire 1 z! Registro1|Reg7|dato0~feeder_combout $end
$var wire 1 {! Registro1|Reg7|dato0~q $end
$var wire 1 |! Registro1|Reg8|dato0~q $end
$var wire 1 }! SelectorLetra|Mux1|Out_Mux~22_combout $end
$var wire 1 ~! SelectorLetra|Mux1|Out_Mux~4_combout $end
$var wire 1 !" Registro3|Reg8|dato0~q $end
$var wire 1 "" SelectorLetra|Mux1|Out_Mux~20_combout $end
$var wire 1 #" SelectorLetra|Mux1|Out_Mux~5_combout $end
$var wire 1 $" SelectorLetra|Mux1|Out_Mux~21_combout $end
$var wire 1 %" SelectorLetra|Mux1|Out_Mux~23_combout $end
$var wire 1 &" SelectorLetra|Mux1|Out_Mux~2_combout $end
$var wire 1 '" Registro2|Reg1|dato0~q $end
$var wire 1 (" Registro2|Reg2|dato0~q $end
$var wire 1 )" Registro2|Reg3|dato0~q $end
$var wire 1 *" Registro2|Reg4|dato0~feeder_combout $end
$var wire 1 +" Registro2|Reg4|dato0~q $end
$var wire 1 ," Registro2|Reg5|dato0~feeder_combout $end
$var wire 1 -" Registro2|Reg5|dato0~q $end
$var wire 1 ." SelectorLetra|Mux1|Out_Mux~10_combout $end
$var wire 1 /" Registro2|Reg6|dato0~feeder_combout $end
$var wire 1 0" Registro2|Reg6|dato0~q $end
$var wire 1 1" SelectorLetra|Mux1|Out_Mux~9_combout $end
$var wire 1 2" SelectorLetra|Mux1|Out_Mux~11_combout $end
$var wire 1 3" Registro2|Reg7|dato0~feeder_combout $end
$var wire 1 4" Registro2|Reg7|dato0~q $end
$var wire 1 5" Registro2|Reg8|dato0~q $end
$var wire 1 6" SelectorLetra|Mux1|Out_Mux~8_combout $end
$var wire 1 7" SelectorLetra|Mux1|Out_Mux~1_combout $end
$var wire 1 8" SelectorLetra|Mux1|Out_Mux~7_combout $end
$var wire 1 9" SelectorLetra|Mux1|Out_Mux~0_combout $end
$var wire 1 :" SelectorLetra|Mux1|Out_Mux~12_combout $end
$var wire 1 ;" SelectorLetra|Mux1|Out_Mux~24_combout $end
$var wire 1 <" ComunicacionPC~2_combout $end
$var wire 1 =" ComunicacionPC~3_combout $end
$var wire 1 >" Controll|Protocolo~combout $end
$var wire 1 ?" ComunicacionPC~0_combout $end
$var wire 1 @" Letra[3]~input_o $end
$var wire 1 A" Registro3|Reg1|dato3~q $end
$var wire 1 B" Registro3|Reg2|dato3~q $end
$var wire 1 C" Registro3|Reg3|dato3~q $end
$var wire 1 D" Registro3|Reg4|dato3~q $end
$var wire 1 E" Registro3|Reg5|dato3~feeder_combout $end
$var wire 1 F" Registro3|Reg5|dato3~q $end
$var wire 1 G" Registro1|Reg1|dato3~q $end
$var wire 1 H" Registro1|Reg2|dato3~feeder_combout $end
$var wire 1 I" Registro1|Reg2|dato3~q $end
$var wire 1 J" Registro1|Reg3|dato3~q $end
$var wire 1 K" Registro1|Reg4|dato3~q $end
$var wire 1 L" Registro1|Reg5|dato3~q $end
$var wire 1 M" Registro1|Reg6|dato3~q $end
$var wire 1 N" Registro3|Reg6|dato3~feeder_combout $end
$var wire 1 O" Registro3|Reg6|dato3~q $end
$var wire 1 P" SelectorLetra|Mux4|Out_Mux~6_combout $end
$var wire 1 Q" SelectorLetra|Mux4|Out_Mux~7_combout $end
$var wire 1 R" SelectorLetra|Mux4|Out_Mux~8_combout $end
$var wire 1 S" SelectorLetra|Mux4|Out_Mux~9_combout $end
$var wire 1 T" SelectorLetra|Mux4|Out_Mux~10_combout $end
$var wire 1 U" SelectorLetra|Mux4|Out_Mux~11_combout $end
$var wire 1 V" Registro2|Reg1|dato3~q $end
$var wire 1 W" Registro2|Reg2|dato3~q $end
$var wire 1 X" Registro2|Reg3|dato3~q $end
$var wire 1 Y" Registro2|Reg4|dato3~feeder_combout $end
$var wire 1 Z" Registro2|Reg4|dato3~q $end
$var wire 1 [" Registro2|Reg5|dato3~feeder_combout $end
$var wire 1 \" Registro2|Reg5|dato3~q $end
$var wire 1 ]" Registro2|Reg6|dato3~feeder_combout $end
$var wire 1 ^" Registro2|Reg6|dato3~q $end
$var wire 1 _" Registro2|Reg7|dato3~feeder_combout $end
$var wire 1 `" Registro2|Reg7|dato3~q $end
$var wire 1 a" Registro2|Reg8|dato3~q $end
$var wire 1 b" SelectorLetra|Mux4|Out_Mux~1_combout $end
$var wire 1 c" SelectorLetra|Mux4|Out_Mux~3_combout $end
$var wire 1 d" SelectorLetra|Mux4|Out_Mux~2_combout $end
$var wire 1 e" SelectorLetra|Mux4|Out_Mux~4_combout $end
$var wire 1 f" SelectorLetra|Mux4|Out_Mux~0_combout $end
$var wire 1 g" SelectorLetra|Mux4|Out_Mux~5_combout $end
$var wire 1 h" Registro3|Reg7|dato3~feeder_combout $end
$var wire 1 i" Registro3|Reg7|dato3~q $end
$var wire 1 j" SelectorLetra|Mux4|Out_Mux~12_combout $end
$var wire 1 k" Registro1|Reg7|dato3~q $end
$var wire 1 l" Registro1|Reg8|dato3~q $end
$var wire 1 m" SelectorLetra|Mux4|Out_Mux~15_combout $end
$var wire 1 n" Registro3|Reg8|dato3~q $end
$var wire 1 o" SelectorLetra|Mux4|Out_Mux~13_combout $end
$var wire 1 p" SelectorLetra|Mux4|Out_Mux~14_combout $end
$var wire 1 q" SelectorLetra|Mux4|Out_Mux~16_combout $end
$var wire 1 r" SelectorLetra|Mux4|Out_Mux~17_combout $end
$var wire 1 s" Letra[1]~input_o $end
$var wire 1 t" Registro1|Reg1|dato1~q $end
$var wire 1 u" Registro1|Reg2|dato1~q $end
$var wire 1 v" Registro1|Reg3|dato1~q $end
$var wire 1 w" Registro1|Reg4|dato1~q $end
$var wire 1 x" Registro1|Reg5|dato1~q $end
$var wire 1 y" Registro1|Reg6|dato1~feeder_combout $end
$var wire 1 z" Registro1|Reg6|dato1~q $end
$var wire 1 {" Registro1|Reg7|dato1~q $end
$var wire 1 |" SelectorLetra|Mux2|Out_Mux~13_combout $end
$var wire 1 }" Registro3|Reg1|dato1~q $end
$var wire 1 ~" Registro3|Reg2|dato1~q $end
$var wire 1 !# Registro3|Reg3|dato1~q $end
$var wire 1 "# Registro3|Reg4|dato1~q $end
$var wire 1 ## Registro3|Reg5|dato1~q $end
$var wire 1 $# Registro3|Reg6|dato1~feeder_combout $end
$var wire 1 %# Registro3|Reg6|dato1~q $end
$var wire 1 &# Registro3|Reg7|dato1~feeder_combout $end
$var wire 1 '# Registro3|Reg7|dato1~q $end
$var wire 1 (# Registro3|Reg8|dato1~q $end
$var wire 1 )# SelectorLetra|Mux2|Out_Mux~12_combout $end
$var wire 1 *# Registro1|Reg8|dato1~q $end
$var wire 1 +# SelectorLetra|Mux2|Out_Mux~14_combout $end
$var wire 1 ,# SelectorLetra|Mux2|Out_Mux~11_combout $end
$var wire 1 -# SelectorLetra|Mux2|Out_Mux~15_combout $end
$var wire 1 .# SelectorLetra|Mux2|Out_Mux~6_combout $end
$var wire 1 /# SelectorLetra|Mux2|Out_Mux~7_combout $end
$var wire 1 0# SelectorLetra|Mux2|Out_Mux~8_combout $end
$var wire 1 1# SelectorLetra|Mux2|Out_Mux~9_combout $end
$var wire 1 2# SelectorLetra|Mux2|Out_Mux~10_combout $end
$var wire 1 3# Registro2|Reg1|dato1~q $end
$var wire 1 4# Registro2|Reg2|dato1~q $end
$var wire 1 5# Registro2|Reg3|dato1~q $end
$var wire 1 6# Registro2|Reg4|dato1~feeder_combout $end
$var wire 1 7# Registro2|Reg4|dato1~q $end
$var wire 1 8# Registro2|Reg5|dato1~feeder_combout $end
$var wire 1 9# Registro2|Reg5|dato1~q $end
$var wire 1 :# Registro2|Reg6|dato1~feeder_combout $end
$var wire 1 ;# Registro2|Reg6|dato1~q $end
$var wire 1 <# Registro2|Reg7|dato1~feeder_combout $end
$var wire 1 =# Registro2|Reg7|dato1~q $end
$var wire 1 ># Registro2|Reg8|dato1~q $end
$var wire 1 ?# SelectorLetra|Mux2|Out_Mux~1_combout $end
$var wire 1 @# SelectorLetra|Mux2|Out_Mux~2_combout $end
$var wire 1 A# SelectorLetra|Mux2|Out_Mux~3_combout $end
$var wire 1 B# SelectorLetra|Mux2|Out_Mux~4_combout $end
$var wire 1 C# SelectorLetra|Mux2|Out_Mux~0_combout $end
$var wire 1 D# SelectorLetra|Mux2|Out_Mux~5_combout $end
$var wire 1 E# SelectorLetra|Mux2|Out_Mux~16_combout $end
$var wire 1 F# ComunicacionPC~1_combout $end
$var wire 1 G# Letra[2]~input_o $end
$var wire 1 H# Registro2|Reg1|dato2~q $end
$var wire 1 I# Registro2|Reg2|dato2~q $end
$var wire 1 J# Registro2|Reg3|dato2~q $end
$var wire 1 K# Registro2|Reg4|dato2~q $end
$var wire 1 L# Registro2|Reg5|dato2~q $end
$var wire 1 M# SelectorLetra|Mux3|Out_Mux~4_combout $end
$var wire 1 N# Registro2|Reg6|dato2~feeder_combout $end
$var wire 1 O# Registro2|Reg6|dato2~q $end
$var wire 1 P# SelectorLetra|Mux3|Out_Mux~3_combout $end
$var wire 1 Q# SelectorLetra|Mux3|Out_Mux~5_combout $end
$var wire 1 R# Registro2|Reg7|dato2~feeder_combout $end
$var wire 1 S# Registro2|Reg7|dato2~q $end
$var wire 1 T# SelectorLetra|Mux3|Out_Mux~1_combout $end
$var wire 1 U# Registro2|Reg8|dato2~q $end
$var wire 1 V# SelectorLetra|Mux3|Out_Mux~2_combout $end
$var wire 1 W# SelectorLetra|Mux3|Out_Mux~6_combout $end
$var wire 1 X# Registro3|Reg1|dato2~q $end
$var wire 1 Y# Registro3|Reg2|dato2~q $end
$var wire 1 Z# Registro3|Reg3|dato2~q $end
$var wire 1 [# Registro3|Reg4|dato2~feeder_combout $end
$var wire 1 \# Registro3|Reg4|dato2~q $end
$var wire 1 ]# Registro3|Reg5|dato2~q $end
$var wire 1 ^# Registro3|Reg6|dato2~feeder_combout $end
$var wire 1 _# Registro3|Reg6|dato2~q $end
$var wire 1 `# SelectorLetra|Mux3|Out_Mux~10_combout $end
$var wire 1 a# Registro1|Reg1|dato2~q $end
$var wire 1 b# Registro1|Reg2|dato2~feeder_combout $end
$var wire 1 c# Registro1|Reg2|dato2~q $end
$var wire 1 d# Registro1|Reg3|dato2~q $end
$var wire 1 e# Registro1|Reg4|dato2~feeder_combout $end
$var wire 1 f# Registro1|Reg4|dato2~q $end
$var wire 1 g# Registro1|Reg5|dato2~q $end
$var wire 1 h# Registro1|Reg6|dato2~feeder_combout $end
$var wire 1 i# Registro1|Reg6|dato2~q $end
$var wire 1 j# SelectorLetra|Mux3|Out_Mux~11_combout $end
$var wire 1 k# SelectorLetra|Mux3|Out_Mux~12_combout $end
$var wire 1 l# Registro3|Reg7|dato2~feeder_combout $end
$var wire 1 m# Registro3|Reg7|dato2~q $end
$var wire 1 n# SelectorLetra|Mux3|Out_Mux~13_combout $end
$var wire 1 o# Registro1|Reg7|dato2~feeder_combout $end
$var wire 1 p# Registro1|Reg7|dato2~q $end
$var wire 1 q# Registro1|Reg8|dato2~q $end
$var wire 1 r# SelectorLetra|Mux3|Out_Mux~16_combout $end
$var wire 1 s# SelectorLetra|Mux3|Out_Mux~15_combout $end
$var wire 1 t# Registro3|Reg8|dato2~q $end
$var wire 1 u# SelectorLetra|Mux3|Out_Mux~14_combout $end
$var wire 1 v# SelectorLetra|Mux3|Out_Mux~17_combout $end
$var wire 1 w# SelectorLetra|Mux3|Out_Mux~7_combout $end
$var wire 1 x# SelectorLetra|Mux3|Out_Mux~8_combout $end
$var wire 1 y# SelectorLetra|Mux3|Out_Mux~9_combout $end
$var wire 1 z# SelectorLetra|Mux3|Out_Mux~18_combout $end
$var wire 1 {# ComunicacionPC~6_combout $end
$var wire 1 |# Letra[4]~input_o $end
$var wire 1 }# Registro3|Reg1|dato4~q $end
$var wire 1 ~# Registro1|Reg1|dato4~q $end
$var wire 1 !$ SelectorLetra|Mux5|Out_Mux~9_combout $end
$var wire 1 "$ Registro3|Reg2|dato4~q $end
$var wire 1 #$ Registro1|Reg2|dato4~feeder_combout $end
$var wire 1 $$ Registro1|Reg2|dato4~q $end
$var wire 1 %$ SelectorLetra|Mux5|Out_Mux~10_combout $end
$var wire 1 &$ Registro1|Reg3|dato4~q $end
$var wire 1 '$ Registro1|Reg4|dato4~q $end
$var wire 1 ($ Registro1|Reg5|dato4~q $end
$var wire 1 )$ Registro1|Reg6|dato4~feeder_combout $end
$var wire 1 *$ Registro1|Reg6|dato4~q $end
$var wire 1 +$ Registro3|Reg3|dato4~q $end
$var wire 1 ,$ Registro3|Reg4|dato4~feeder_combout $end
$var wire 1 -$ Registro3|Reg4|dato4~q $end
$var wire 1 .$ Registro3|Reg5|dato4~q $end
$var wire 1 /$ Registro3|Reg6|dato4~q $end
$var wire 1 0$ SelectorLetra|Mux5|Out_Mux~6_combout $end
$var wire 1 1$ SelectorLetra|Mux5|Out_Mux~7_combout $end
$var wire 1 2$ SelectorLetra|Mux5|Out_Mux~8_combout $end
$var wire 1 3$ SelectorLetra|Mux5|Out_Mux~11_combout $end
$var wire 1 4$ Registro2|Reg1|dato4~q $end
$var wire 1 5$ Registro2|Reg2|dato4~q $end
$var wire 1 6$ Registro2|Reg3|dato4~q $end
$var wire 1 7$ Registro2|Reg4|dato4~feeder_combout $end
$var wire 1 8$ Registro2|Reg4|dato4~q $end
$var wire 1 9$ Registro2|Reg5|dato4~feeder_combout $end
$var wire 1 :$ Registro2|Reg5|dato4~q $end
$var wire 1 ;$ Registro2|Reg6|dato4~feeder_combout $end
$var wire 1 <$ Registro2|Reg6|dato4~q $end
$var wire 1 =$ Registro2|Reg7|dato4~feeder_combout $end
$var wire 1 >$ Registro2|Reg7|dato4~q $end
$var wire 1 ?$ SelectorLetra|Mux5|Out_Mux~0_combout $end
$var wire 1 @$ SelectorLetra|Mux5|Out_Mux~3_combout $end
$var wire 1 A$ SelectorLetra|Mux5|Out_Mux~2_combout $end
$var wire 1 B$ SelectorLetra|Mux5|Out_Mux~4_combout $end
$var wire 1 C$ Registro2|Reg8|dato4~q $end
$var wire 1 D$ SelectorLetra|Mux5|Out_Mux~1_combout $end
$var wire 1 E$ SelectorLetra|Mux5|Out_Mux~5_combout $end
$var wire 1 F$ Registro1|Reg7|dato4~feeder_combout $end
$var wire 1 G$ Registro1|Reg7|dato4~q $end
$var wire 1 H$ Registro1|Reg8|dato4~q $end
$var wire 1 I$ SelectorLetra|Mux5|Out_Mux~15_combout $end
$var wire 1 J$ Registro3|Reg7|dato4~feeder_combout $end
$var wire 1 K$ Registro3|Reg7|dato4~q $end
$var wire 1 L$ Registro3|Reg8|dato4~q $end
$var wire 1 M$ SelectorLetra|Mux5|Out_Mux~13_combout $end
$var wire 1 N$ SelectorLetra|Mux5|Out_Mux~12_combout $end
$var wire 1 O$ SelectorLetra|Mux5|Out_Mux~14_combout $end
$var wire 1 P$ SelectorLetra|Mux5|Out_Mux~16_combout $end
$var wire 1 Q$ SelectorLetra|Mux5|Out_Mux~17_combout $end
$var wire 1 R$ ComunicacionPC~4_combout $end
$var wire 1 S$ ComunicacionPC~5_combout $end
$var wire 1 T$ ComunicacionPC~7_combout $end
$upscope $end
$upscope $end
$enddefinitions $end
#0
$dumpvars
0!
0"
0#
0$
0%
b10101 &
1'
b0 (
0)
06
05
04
03
02
01
00
0/
0.
0-
0,
0+
1*
17
08
09
0:
0;
1<
x=
1>
1?
1@
0A
zB
zC
1D
0E
0F
0G
0H
0I
0J
0K
0L
0M
0N
0O
0P
0Q
0R
0S
1T
0U
0V
0W
1X
1Y
1Z
1[
0\
0]
0^
0_
0`
1a
0b
0c
1d
0e
1f
1g
0h
0i
0j
0k
1l
1m
1n
0o
0p
0q
0r
0s
0t
0u
1v
1w
1x
0y
0z
0{
0|
1}
0~
0!!
0"!
0#!
0$!
0%!
1&!
0'!
0(!
0)!
0*!
0+!
0,!
0-!
0.!
0/!
00!
11!
02!
03!
14!
05!
06!
07!
08!
09!
0:!
0;!
0<!
0=!
0>!
0?!
1@!
1A!
0B!
0C!
0D!
0E!
0F!
0G!
0H!
0I!
0J!
0K!
0L!
0M!
1N!
0O!
0P!
0Q!
0R!
0S!
0T!
0U!
0V!
0W!
0X!
0Y!
0Z!
1[!
0\!
0]!
0^!
0_!
0`!
0a!
0b!
0c!
0d!
0e!
0f!
0g!
0h!
0i!
0j!
0k!
0l!
0m!
0n!
0o!
0p!
0q!
0r!
1s!
0t!
0u!
0v!
0w!
0x!
0y!
0z!
0{!
0|!
0}!
0~!
0!"
0""
1#"
0$"
0%"
0&"
0'"
0("
0)"
0*"
0+"
0,"
0-"
0."
0/"
00"
01"
02"
03"
04"
05"
06"
07"
08"
09"
0:"
0;"
0<"
0="
0>"
0?"
0@"
0A"
0B"
0C"
0D"
0E"
0F"
0G"
0H"
0I"
0J"
0K"
0L"
0M"
0N"
0O"
0P"
0Q"
0R"
0S"
0T"
0U"
0V"
0W"
0X"
0Y"
0Z"
0["
0\"
0]"
0^"
0_"
0`"
0a"
0b"
0c"
0d"
0e"
0f"
0g"
0h"
0i"
0j"
0k"
0l"
0m"
0n"
0o"
0p"
0q"
0r"
0s"
0t"
0u"
0v"
0w"
0x"
0y"
0z"
0{"
0|"
0}"
0~"
0!#
0"#
0##
0$#
0%#
0&#
0'#
0(#
0)#
0*#
0+#
0,#
0-#
0.#
0/#
00#
01#
02#
03#
04#
05#
06#
07#
08#
09#
0:#
0;#
0<#
0=#
0>#
0?#
0@#
0A#
0B#
0C#
0D#
0E#
0F#
1G#
0H#
0I#
0J#
0K#
0L#
0M#
0N#
0O#
0P#
0Q#
0R#
0S#
0T#
0U#
0V#
0W#
0X#
0Y#
0Z#
0[#
0\#
0]#
0^#
0_#
0`#
0a#
0b#
0c#
0d#
0e#
0f#
0g#
0h#
0i#
0j#
0k#
0l#
0m#
0n#
0o#
0p#
0q#
0r#
0s#
0t#
0u#
0v#
0w#
0x#
0y#
0z#
0{#
1|#
0}#
0~#
0!$
0"$
0#$
0$$
0%$
0&$
0'$
0($
0)$
0*$
0+$
0,$
0-$
0.$
0/$
00$
01$
02$
03$
04$
05$
06$
07$
08$
09$
0:$
0;$
0<$
0=$
0>$
0?$
0@$
0A$
0B$
0C$
0D$
0E$
0F$
0G$
0H$
0I$
0J$
0K$
0L$
0M$
0N$
0O$
0P$
0Q$
0R$
0S$
0T$
$end
#5000
1!
1V
1W
#10000
1%
0!
0V
1]
0W
1O!
1>!
#15000
1!
1V
1W
1?!
1P!
1S
0T
0N!
0*
1+
0O!
1O!
#20000
1$
0!
0V
1^
0W
1N!
1_
0O!
#25000
1!
1V
1W
0P!
1`
1R
0S
0+
1,
0_
1F!
#30000
0$
0!
0V
0^
0W
#35000
1!
1V
1W
1G!
0`
0R
1Q
1J!
1-
0,
0F!
1M!
1O!
#40000
0!
0V
0W
#45000
1!
1V
1W
1~#
1a#
1\!
1T!
1P!
0G!
0Q
1S
1!$
1w#
1b!
0N!
0J!
1+
0-
1#$
1b#
1]!
0[
1%$
1x#
1c!
0M!
13$
1y#
1t!
1Q$
1z#
1;"
#50000
1#
0!
0V
1\
0W
1N!
1Q!
0O!
#55000
1!
1V
1W
1R!
0P!
0S
1N
1S!
1b
10
0+
0Q!
0N!
1O!
0T!
1[
#60000
0#
0!
0V
0\
0W
#65000
1!
1V
1W
1c
0R!
1P!
1S
0N
0a
0S!
0b
00
1+
1Y!
0D
1E
18
07
#70000
0!
0V
0W
#75000
1!
1V
1W
#80000
0!
0V
0W
#85000
1!
1V
1W
#90000
1#
0!
0V
1\
0W
1N!
1Q!
0O!
#95000
1!
1V
1W
1R!
0P!
0S
1N
1W!
1S!
1b
10
0+
0Q!
0N!
1O!
#100000
0#
0!
0V
0\
0W
#105000
1!
1V
1W
0c
1X!
0R!
1P!
1S
0N
1F
0W!
1a
0X
0S!
0b
19
00
1+
#110000
0!
0V
0W
#115000
1!
1V
1W
#120000
0!
0V
0W
#125000
1!
1V
1W
#130000
1#
0!
0V
1\
0W
1N!
1Q!
0O!
#135000
1!
1V
1W
1R!
0P!
0S
1N
1S!
1b
10
0+
0Q!
0N!
1O!
#140000
0#
0!
0V
0\
0W
#145000
1!
1V
1W
1c
0R!
1P!
1S
0N
0a
0S!
0b
00
1+
1Z!
1G
1:
#150000
0!
0V
0W
#155000
1!
1V
1W
#160000
0!
0V
0W
#165000
1!
1V
1W
#170000
1$
0!
0V
1^
0W
1N!
1_
0O!
#175000
1!
1V
1W
0P!
1`
1R
0S
0+
1,
0_
1<!
#180000
0$
0!
0V
0^
0W
#185000
1!
1V
1W
1=!
0`
0R
1L
1:!
1e
12
0,
0<!
1;!
1<!
#190000
0!
0V
0W
